HGAM trial
…
library(tidyverse)
library(readxl)
library(mgcv)
library(MASS)
library(gratia)

# dvs <- c('CHD', 'Depression', 'COPD', 'DIABETES', 'HIGHCHOL', 'BPHIGH', 'Obesity')

data <- read_excel("merged_excel.xlsx") # non-cleaned data

Basic data cleaning - not fully implemented:

rename(data, PAProp = "Park Area - Proportion", StopsSqMile = "Stops per Sq Mile")

# A tibble: 50,080 × 27
       TractID Obesity StopsSqMile    PAProp lapophalfshare lapop1share est_ptrp
         <dbl>   <dbl>       <dbl>     <dbl>          <dbl>       <dbl>    <dbl>
 1 39003010100    33.3           0   2.44e-2           39.8       13.4      8.71
 2 39003010900    38.6           0   0                 55.9        3.14     7.73
 3 39003011000    42.1           0   0                 81.9       30.9      7.67
 4 39003011200    44.8           0   0                 98.2       14.7      8.33
 5 39003011800    38.5           0   9.41e-6           73.7       28.3      8.22
 6 39003011900    39.5           0   2.85e-2           89.5       78.6      8.14
 7 39003012000    37.2           0   0                100.        99.9      8.37
 8 39003012200    46.8           0   0                 48.2       NA        8.07
 9 39003012300    45             0   4.38e-2           42.4       NA        7.97
10 39003012400    46.7           0   0                 25.4       NA        7.54
# ℹ 50,070 more rows
# ℹ 20 more variables: est_vmiles <dbl>, CHD <dbl>, Depression <dbl>,
#   COPD <dbl>, DIABETES <dbl>, HIGHCHOL <dbl>, BPHIGH <dbl>,
#   lakids1share <dbl>, lahunv1share <dbl>, Lat <dbl>, Long <dbl>,
#   ht_ami <dbl>, emp_gravity <dbl>, `Job Access By Transit` <dbl>,
#   State <chr>, Subgroup <dbl>, `Unnamed: 0` <lgl>, `Unnamed: 1` <lgl>,
#   `Unnamed: 2` <lgl>, `Unnamed: 3` <lgl>
…
